<svg width="35" height="35" viewBox="0 0 35 35" fill="none" xmlns="http://www.w3.org/2000/svg">
<path d="M17.5 32.8125C13.4389 32.8125 9.54408 31.1992 6.67243 28.3276C3.80078 25.4559 2.1875 21.5611 2.1875 17.5C2.1875 13.4389 3.80078 9.54408 6.67243 6.67243C9.54408 3.80078 13.4389 2.1875 17.5 2.1875C21.5611 2.1875 25.4559 3.80078 28.3276 6.67243C31.1992 9.54408 32.8125 13.4389 32.8125 17.5C32.8125 21.5611 31.1992 25.4559 28.3276 28.3276C25.4559 31.1992 21.5611 32.8125 17.5 32.8125ZM17.5 35C22.1413 35 26.5925 33.1563 29.8744 29.8744C33.1563 26.5925 35 22.1413 35 17.5C35 12.8587 33.1563 8.40752 29.8744 5.12563C26.5925 1.84374 22.1413 0 17.5 0C12.8587 0 8.40752 1.84374 5.12563 5.12563C1.84374 8.40752 0 12.8587 0 17.5C0 22.1413 1.84374 26.5925 5.12563 29.8744C8.40752 33.1563 12.8587 35 17.5 35Z" fill="#828282"/>
<path d="M11.4953 12.6569C11.4923 12.7275 11.5038 12.798 11.5291 12.8641C11.5544 12.9301 11.5929 12.9903 11.6422 13.0409C11.6916 13.0915 11.7508 13.1315 11.8162 13.1583C11.8816 13.1852 11.9518 13.1984 12.0225 13.1972H13.8272C14.1291 13.1972 14.3697 12.95 14.4091 12.6503C14.606 11.2153 15.5903 10.1697 17.3447 10.1697C18.8453 10.1697 20.2191 10.92 20.2191 12.7247C20.2191 14.1137 19.401 14.7525 18.1082 15.7238C16.636 16.7934 15.47 18.0425 15.5532 20.0703L15.5597 20.545C15.562 20.6885 15.6206 20.8254 15.723 20.9261C15.8253 21.0267 15.9631 21.0831 16.1066 21.0831H17.8807C18.0257 21.0831 18.1648 21.0255 18.2674 20.9229C18.3699 20.8204 18.4275 20.6813 18.4275 20.5362V20.3066C18.4275 18.7359 19.0247 18.2787 20.6369 17.0559C21.9691 16.0431 23.3582 14.9188 23.3582 12.5584C23.3582 9.25313 20.5669 7.65625 17.511 7.65625C14.7394 7.65625 11.7032 8.94687 11.4953 12.6569ZM14.9013 25.2634C14.9013 26.4294 15.831 27.2913 17.1107 27.2913C18.4428 27.2913 19.3594 26.4294 19.3594 25.2634C19.3594 24.0559 18.4407 23.2072 17.1085 23.2072C15.831 23.2072 14.9013 24.0559 14.9013 25.2634Z" fill="#828282"/>
</svg>
