<svg width="35" height="35" viewBox="0 0 35 35" fill="none" xmlns="http://www.w3.org/2000/svg">
<path fill-rule="evenodd" clip-rule="evenodd" d="M10.9375 25.1562C10.9375 24.8662 11.0527 24.588 11.2579 24.3829C11.463 24.1777 11.7412 24.0625 12.0312 24.0625H31.7188C32.0088 24.0625 32.287 24.1777 32.4921 24.3829C32.6973 24.588 32.8125 24.8662 32.8125 25.1562C32.8125 25.4463 32.6973 25.7245 32.4921 25.9296C32.287 26.1348 32.0088 26.25 31.7188 26.25H12.0312C11.7412 26.25 11.463 26.1348 11.2579 25.9296C11.0527 25.7245 10.9375 25.4463 10.9375 25.1562ZM10.9375 16.4062C10.9375 16.1162 11.0527 15.838 11.2579 15.6329C11.463 15.4277 11.7412 15.3125 12.0312 15.3125H31.7188C32.0088 15.3125 32.287 15.4277 32.4921 15.6329C32.6973 15.838 32.8125 16.1162 32.8125 16.4062C32.8125 16.6963 32.6973 16.9745 32.4921 17.1796C32.287 17.3848 32.0088 17.5 31.7188 17.5H12.0312C11.7412 17.5 11.463 17.3848 11.2579 17.1796C11.0527 16.9745 10.9375 16.6963 10.9375 16.4062ZM10.9375 7.65625C10.9375 7.36617 11.0527 7.08797 11.2579 6.88285C11.463 6.67773 11.7412 6.5625 12.0312 6.5625H31.7188C32.0088 6.5625 32.287 6.67773 32.4921 6.88285C32.6973 7.08797 32.8125 7.36617 32.8125 7.65625C32.8125 7.94633 32.6973 8.22453 32.4921 8.42965C32.287 8.63477 32.0088 8.75 31.7188 8.75H12.0312C11.7412 8.75 11.463 8.63477 11.2579 8.42965C11.0527 8.22453 10.9375 7.94633 10.9375 7.65625ZM4.375 9.84375C4.95516 9.84375 5.51156 9.61328 5.9218 9.20305C6.33203 8.79281 6.5625 8.23641 6.5625 7.65625C6.5625 7.07609 6.33203 6.51969 5.9218 6.10945C5.51156 5.69922 4.95516 5.46875 4.375 5.46875C3.79484 5.46875 3.23844 5.69922 2.8282 6.10945C2.41797 6.51969 2.1875 7.07609 2.1875 7.65625C2.1875 8.23641 2.41797 8.79281 2.8282 9.20305C3.23844 9.61328 3.79484 9.84375 4.375 9.84375ZM4.375 18.5938C4.95516 18.5938 5.51156 18.3633 5.9218 17.953C6.33203 17.5428 6.5625 16.9864 6.5625 16.4062C6.5625 15.8261 6.33203 15.2697 5.9218 14.8595C5.51156 14.4492 4.95516 14.2188 4.375 14.2188C3.79484 14.2188 3.23844 14.4492 2.8282 14.8595C2.41797 15.2697 2.1875 15.8261 2.1875 16.4062C2.1875 16.9864 2.41797 17.5428 2.8282 17.953C3.23844 18.3633 3.79484 18.5938 4.375 18.5938ZM4.375 27.3438C4.95516 27.3438 5.51156 27.1133 5.9218 26.703C6.33203 26.2928 6.5625 25.7364 6.5625 25.1562C6.5625 24.5761 6.33203 24.0197 5.9218 23.6095C5.51156 23.1992 4.95516 22.9688 4.375 22.9688C3.79484 22.9688 3.23844 23.1992 2.8282 23.6095C2.41797 24.0197 2.1875 24.5761 2.1875 25.1562C2.1875 25.7364 2.41797 26.2928 2.8282 26.703C3.23844 27.1133 3.79484 27.3438 4.375 27.3438Z" fill="#828282"/>
</svg>
