<svg width="35" height="35" viewBox="0 0 35 35" fill="none" xmlns="http://www.w3.org/2000/svg">
<path d="M32.3107 17.083C32.3547 17.1489 32.3799 17.2255 32.3837 17.3047C32.3875 17.3838 32.3698 17.4625 32.3324 17.5323C32.2949 17.6021 32.2393 17.6605 32.1713 17.7012C32.1033 17.7418 32.0256 17.7633 31.9464 17.7632H17.9969L20.987 14.4286V6.49757H31.9224C32.0025 6.49761 32.0809 6.51959 32.1493 6.56113C32.2177 6.60266 32.2734 6.66215 32.3103 6.73312C32.3473 6.8041 32.364 6.88385 32.3588 6.96369C32.3536 7.04353 32.3265 7.1204 32.2806 7.18595L28.9146 11.9841L32.3107 17.083Z" fill="#828282"/>
<path d="M20.5495 3.62305H8.20312V14.4238H20.9863V4.03868C20.986 3.9824 20.9742 3.92677 20.9519 3.87512C20.9295 3.82347 20.897 3.77685 20.8562 3.73805C20.8155 3.69926 20.7673 3.66908 20.7146 3.64932C20.6619 3.62956 20.6057 3.62063 20.5495 3.62305Z" fill="#828282"/>
<path d="M20.987 14.4286L17.9969 17.7632V14.4286H20.987Z" fill="#333333"/>
<path d="M7.29627 1.77734C7.05035 1.77672 6.81402 1.8727 6.63817 2.04462C6.46288 2.21381 6.3619 2.44566 6.35742 2.68925V29.873H8.20312V2.68925C8.20366 2.56977 8.18061 2.45136 8.13529 2.34081C8.08997 2.23025 8.02328 2.12974 7.93902 2.04501C7.85477 1.96029 7.75463 1.89304 7.64433 1.8471C7.53403 1.80117 7.41575 1.77746 7.29627 1.77734Z" fill="#828282"/>
<path d="M8.43214 29.7363H6.09767C5.90736 29.7349 5.71866 29.7713 5.54251 29.8433C5.36635 29.9153 5.20624 30.0216 5.07144 30.1559C4.93665 30.2903 4.82986 30.45 4.75725 30.626C4.68464 30.8019 4.64766 30.9905 4.64845 31.1808V31.582H9.91212V31.1808C9.91212 30.3748 9.23741 29.7363 8.43214 29.7363Z" fill="#828282"/>
<path d="M10.4556 31.4453H4.07422C3.68274 31.4507 3.30893 31.6092 3.03292 31.8868C2.75691 32.1645 2.60066 32.5393 2.59766 32.9308V33.2227H11.8945V32.9308C11.8945 32.1255 11.2615 31.4453 10.4556 31.4453Z" fill="#828282"/>
<path d="M8.20312 3.62305H10.2539V14.4238H8.20312V3.62305Z" fill="#828282"/>
<path d="M9.93005 5.73474C9.82127 5.73474 9.71695 5.69153 9.64003 5.61461C9.56311 5.53769 9.5199 5.43336 9.5199 5.32458V4.99796C9.5199 4.88918 9.56311 4.78486 9.64003 4.70794C9.71695 4.63102 9.82127 4.58781 9.93005 4.58781C10.0388 4.58781 10.1432 4.63102 10.2201 4.70794C10.297 4.78486 10.3402 4.88918 10.3402 4.99796V5.32458C10.3402 5.43336 10.297 5.53769 10.2201 5.61461C10.1432 5.69153 10.0388 5.73474 9.93005 5.73474Z" fill="white"/>
<path d="M9.93005 10.93C9.82127 10.93 9.71695 10.8868 9.64003 10.8099C9.56311 10.733 9.5199 10.6287 9.5199 10.5199V6.81631C9.5199 6.70753 9.56311 6.6032 9.64003 6.52628C9.71695 6.44936 9.82127 6.40615 9.93005 6.40615C10.0388 6.40615 10.1432 6.44936 10.2201 6.52628C10.297 6.6032 10.3402 6.70753 10.3402 6.81631V10.5199C10.3402 10.6287 10.297 10.733 10.2201 10.8099C10.1432 10.8868 10.0388 10.93 9.93005 10.93Z" fill="white"/>
</svg>
