<svg width="35" height="35" viewBox="0 0 35 35" fill="none" xmlns="http://www.w3.org/2000/svg">
<path fill-rule="evenodd" clip-rule="evenodd" d="M26.25 17.5C26.25 17.7901 26.1348 18.0683 25.9297 18.2734C25.7245 18.4785 25.4463 18.5938 25.1563 18.5938H12.4841L17.1806 23.2881C17.2823 23.3898 17.363 23.5106 17.418 23.6434C17.4731 23.7763 17.5014 23.9187 17.5014 24.0625C17.5014 24.2063 17.4731 24.3487 17.418 24.4816C17.363 24.6145 17.2823 24.7352 17.1806 24.8369C17.0789 24.9386 16.9582 25.0192 16.8253 25.0743C16.6925 25.1293 16.5501 25.1576 16.4063 25.1576C16.2624 25.1576 16.12 25.1293 15.9872 25.0743C15.8543 25.0192 15.7336 24.9386 15.6319 24.8369L9.06938 18.2744C8.96752 18.1728 8.88671 18.0521 8.83157 17.9192C8.77643 17.7863 8.74805 17.6439 8.74805 17.5C8.74805 17.3561 8.77643 17.2137 8.83157 17.0808C8.88671 16.9479 8.96752 16.8272 9.06938 16.7256L15.6319 10.1631C15.8373 9.95776 16.1158 9.84238 16.4063 9.84238C16.6967 9.84238 16.9753 9.95776 17.1806 10.1631C17.386 10.3685 17.5014 10.6471 17.5014 10.9375C17.5014 11.228 17.386 11.5065 17.1806 11.7119L12.4841 16.4063H25.1563C25.4463 16.4063 25.7245 16.5215 25.9297 16.7266C26.1348 16.9317 26.25 17.2099 26.25 17.5Z" fill="#828282"/>
</svg>
